Get panel data by unit and variable Id's from BDL API — get_panel_data • bdl
…
   get_panel_data(unitId = c("030210101000", "030210105000", "030210106000"),
                          varId =  c("60270", "461668"), ggplot = TRUE)
#> # A tibble: 96 x 4
#>    unit         year  variables values
#>    <fct>        <chr> <chr>      <dbl>
#>  1 030210101000 2004  60270       25.3
#>  2 030210101000 2004  461668      NA  
#>  3 030210101000 2005  60270       22.4
#>  4 030210101000 2005  461668      NA  
#>  5 030210101000 2006  60270       17.7
#>  6 030210101000 2006  461668      NA  
#>  7 030210101000 2007  60270       13.4
#>  8 030210101000 2007  461668      NA  
#>  9 030210101000 2008  60270       11.3
#> 10 030210101000 2008  461668      NA  
#> # ... with 86 more rows
…
